VIO_ILA/.Xil/Vivado-1484-PC-077/hw_ila_data_2/zip_work/waveform.vcd
$date
        2025-Apr-03 10:04:05
$end
$version
        Vivado v2022.1 (64-bit)
$end
$timescale
        1ps
$end
$scope module dut $end
$var reg 8 " pwm_out_1 [7:0] $end
$var reg 8 * cnt_out_1 [7:0] $end
$var reg 1 2 _TRIGGER $end
$var reg 1 3 _WINDOW $end
$var reg 1 4 _GAP $end
$upscope $end
$enddefinitions $end
#0
$dumpvars
b1000 "
b1000 *
02
13
04
$end
#1
b1001 *
#2
b1010 *
#3
b1011 *
#4
b1100 *
#5
b1101 *
#6
b1110 *
#7
b1111 *
#8
b10000 *
#9
b10001 *
#10
b10010 *
#11
b10011 *
#12
b10100 *
#13
b10101 *
#14
b10110 *
#15
b10111 *
#16
b11000 *
#17
b11001 *
#18
b11010 *
#19
b11011 *
#20
b11100 *
#21
b11101 *
#22
b11110 *
#23
b11111 *
#24
b100000 *
#25
b100001 *
#26
b100010 *
#27
b100011 *
#28
b100100 *
#29
b100101 *
#30
b100110 *
#31
b100111 *
#32
b101000 *
#33
b101001 *
#34
b101010 *
#35
b101011 *
#36
b101100 *
#37
b101101 *
#38
b101110 *
#39
b101111 *
#40
b110000 *
#41
b110001 *
#42
b110010 *
#43
b110011 *
#44
b110100 *
#45
b110101 *
#46
b110110 *
#47
b110111 *
#48
b111000 *
#49
b111001 *
#50
b111010 *
#51
b111011 *
#52
b111100 *
#53
b111101 *
#54
b111110 *
#55
b111111 *
#56
b1000000 *
#57
b1000001 *
#58
b1000010 *
#59
b1000011 *
#60
b1000100 *
#61
b1000101 *
#62
b1000110 *
#63
b1000111 *
#64
b1001000 *
#65
b1001001 *
#66
b1001010 *
#67
b1001011 *
#68
b1001100 *
#69
b1001101 *
#70
b1001110 *
#71
b1001111 *
#72
b1010000 *
#73
b1010001 *
#74
b1010010 *
#75
b1010011 *
#76
b1010100 *
#77
b1010101 *
#78
b1010110 *
#79
b1010111 *
#80
b1011000 *
#81
b1011001 *
#82
b1011010 *
#83
b1011011 *
#84
b1011100 *
#85
b1011101 *
#86
b1011110 *
#87
b1011111 *
#88
b1100000 *
#89
b1100001 *
#90
b1100010 *
#91
b1100011 *
#92
b1100100 *
#93
b1100101 *
#94
b1100110 *
#95
b1100111 *
#96
b1101000 *
#97
b1101001 *
#98
b1101010 *
#99
b1101011 *
#100
b1101100 *
#101
b1101101 *
#102
b1101110 *
#103
b1101111 *
#104
b1110000 *
#105
b1110001 *
#106
b1110010 *
#107
b1110011 *
#108
b1110100 *
#109
b1110101 *
#110
b1110110 *
#111
b1110111 *
#112
b1111000 *
#113
b1111001 *
#114
b1111010 *
#115
b1111011 *
#116
b1111100 *
#117
b1111101 *
#118
b1111110 *
#119
b1111111 *
#120
b10000000 *
#121
b10000001 *
#122
b10000010 *
#123
b10000011 *
#124
b10000100 *
#125
b10000101 *
#126
b10000110 *
#127
b10000111 *
#128
b10001000 *
#129
b10001001 *
#130
b10001010 *
#131
b10001011 *
#132
b10001100 *
#133
b10001101 *
#134
b10001110 *
#135
b10001111 *
#136
b10010000 *
#137
b10010001 *
#138
b10010010 *
#139
b10010011 *
#140
b10010100 *
#141
b10010101 *
#142
b10010110 *
#143
b10010111 *
#144
b10011000 *
#145
b10011001 *
#146
b0 "
b10011010 *
#147
b10011011 *
#148
b10011100 *
#149
b10011101 *
#150
b10011110 *
#151
b10011111 *
#152
b10100000 *
#153
b10100001 *
#154
b10100010 *
#155
b10100011 *
#156
b10100100 *
#157
b10100101 *
#158
b10100110 *
#159
b10100111 *
#160
b10101000 *
#161
b10101001 *
#162
b10101010 *
#163
b10101011 *
#164
b10101100 *
#165
b10101101 *
#166
b10101110 *
#167
b10101111 *
#168
b10110000 *
#169
b10110001 *
#170
b10110010 *
#171
b10110011 *
#172
b10110100 *
#173
b10110101 *
#174
b10110110 *
#175
b10110111 *
#176
b10111000 *
#177
b10111001 *
#178
b10111010 *
#179
b10111011 *
#180
b10111100 *
#181
b10111101 *
#182
b10111110 *
#183
b10111111 *
#184
b11000000 *
#185
b11000001 *
#186
b11000010 *
#187
b11000011 *
#188
b11000100 *
#189
b11000101 *
#190
b11000110 *
#191
b11000111 *
#192
b11001000 *
#193
b11001001 *
#194
b11001010 *
#195
b11001011 *
#196
b11001100 *
#197
b11001101 *
#198
b11001110 *
#199
b11001111 *
#200
b11010000 *
#201
b11010001 *
#202
b11010010 *
#203
b11010011 *
#204
b11010100 *
#205
b11010101 *
#206
b11010110 *
#207
b11010111 *
#208
b11011000 *
#209
b11011001 *
#210
b11011010 *
#211
b11011011 *
#212
b11011100 *
#213
b11011101 *
#214
b11011110 *
#215
b11011111 *
#216
b11100000 *
#217
b11100001 *
#218
b11100010 *
#219
b11100011 *
#220
b11100100 *
#221
b11100101 *
#222
b11100110 *
#223
b11100111 *
#224
b11101000 *
#225
b11101001 *
#226
b11101010 *
#227
b11101011 *
#228
b11101100 *
#229
b11101101 *
#230
b11101110 *
#231
b11101111 *
#232
b11110000 *
#233
b11110001 *
#234
b11110010 *
#235
b11110011 *
#236
b11110100 *
#237
b11110101 *
#238
b11110110 *
#239
b11110111 *
#240
b11111000 *
#241
b11111001 *
#242
b11111010 *
#243
b11111011 *
#244
b11111100 *
#245
b11111101 *
#246
b11111110 *
#247
b0 *
#248
b1000 "
b1 *
#249
b10 *
#250
b11 *
#251
b100 *
#252
b101 *
#253
b110 *
#254
b111 *
#255
b1000 *
#256
b1001 *
#257
b1010 *
#258
b1011 *
#259
b1100 *
#260
b1101 *
#261
b1110 *
#262
b1111 *
#263
b10000 *
#264
b10001 *
#265
b10010 *
#266
b10011 *
#267
b10100 *
#268
b10101 *
#269
b10110 *
#270
b10111 *
#271
b11000 *
#272
b11001 *
#273
b11010 *
#274
b11011 *
#275
b11100 *
#276
b11101 *
#277
b11110 *
#278
b11111 *
#279
b100000 *
#280
b100001 *
#281
b100010 *
#282
b100011 *
#283
b100100 *
#284
b100101 *
#285
b100110 *
#286
b100111 *
#287
b101000 *
#288
b101001 *
#289
b101010 *
#290
b101011 *
#291
b101100 *
#292
b101101 *
#293
b101110 *
#294
b101111 *
#295
b110000 *
#296
b110001 *
#297
b110010 *
#298
b110011 *
#299
b110100 *
#300
b110101 *
#301
b110110 *
#302
b110111 *
#303
b111000 *
#304
b111001 *
#305
b111010 *
#306
b111011 *
#307
b111100 *
#308
b111101 *
#309
b111110 *
#310
b111111 *
#311
b1000000 *
#312
b1000001 *
#313
b1000010 *
#314
b1000011 *
#315
b1000100 *
#316
b1000101 *
#317
b1000110 *
#318
b1000111 *
#319
b1001000 *
#320
b1001001 *
#321
b1001010 *
#322
b1001011 *
#323
b1001100 *
#324
b1001101 *
#325
b1001110 *
#326
b1001111 *
#327
b1010000 *
#328
b1010001 *
#329
b1010010 *
#330
b1010011 *
#331
b1010100 *
#332
b1010101 *
#333
b1010110 *
#334
b1010111 *
#335
b1011000 *
#336
b1011001 *
#337
b1011010 *
#338
b1011011 *
#339
b1011100 *
#340
b1011101 *
#341
b1011110 *
#342
b1011111 *
#343
b1100000 *
#344
b1100001 *
#345
b1100010 *
#346
b1100011 *
#347
b1100100 *
#348
b1100101 *
#349
b1100110 *
#350
b1100111 *
#351
b1101000 *
#352
b1101001 *
#353
b1101010 *
#354
b1101011 *
#355
b1101100 *
#356
b1101101 *
#357
b1101110 *
#358
b1101111 *
#359
b1110000 *
#360
b1110001 *
#361
b1110010 *
#362
b1110011 *
#363
b1110100 *
#364
b1110101 *
#365
b1110110 *
#366
b1110111 *
#367
b1111000 *
#368
b1111001 *
#369
b1111010 *
#370
b1111011 *
#371
b1111100 *
#372
b1111101 *
#373
b1111110 *
#374
b1111111 *
#375
b10000000 *
#376
b10000001 *
#377
b10000010 *
#378
b10000011 *
#379
b10000100 *
#380
b10000101 *
#381
b10000110 *
#382
b10000111 *
#383
b10001000 *
#384
b10001001 *
#385
b10001010 *
#386
b10001011 *
#387
b10001100 *
#388
b10001101 *
#389
b10001110 *
#390
b10001111 *
#391
b10010000 *
#392
b10010001 *
#393
b10010010 *
#394
b10010011 *
#395
b10010100 *
#396
b10010101 *
#397
b10010110 *
#398
b10010111 *
#399
b10011000 *
#400
b10011001 *
#401
b0 "
b10011010 *
#402
b10011011 *
#403
b10011100 *
#404
b10011101 *
#405
b10011110 *
#406
b10011111 *
#407
b10100000 *
#408
b10100001 *
#409
b10100010 *
#410
b10100011 *
#411
b10100100 *
#412
b10100101 *
#413
b10100110 *
#414
b10100111 *
#415
b10101000 *
#416
b10101001 *
#417
b10101010 *
#418
b10101011 *
#419
b10101100 *
#420
b10101101 *
#421
b10101110 *
#422
b10101111 *
#423
b10110000 *
#424
b10110001 *
#425
b10110010 *
#426
b10110011 *
#427
b10110100 *
#428
b10110101 *
#429
b10110110 *
#430
b10110111 *
#431
b10111000 *
#432
b10111001 *
#433
b10111010 *
#434
b10111011 *
#435
b10111100 *
#436
b10111101 *
#437
b10111110 *
#438
b10111111 *
#439
b11000000 *
#440
b11000001 *
#441
b11000010 *
#442
b11000011 *
#443
b11000100 *
#444
b11000101 *
#445
b11000110 *
#446
b11000111 *
#447
b11001000 *
#448
b11001001 *
#449
b11001010 *
#450
b11001011 *
#451
b11001100 *
#452
b11001101 *
#453
b11001110 *
#454
b11001111 *
#455
b11010000 *
#456
b11010001 *
#457
b11010010 *
#458
b11010011 *
#459
b11010100 *
#460
b11010101 *
#461
b11010110 *
#462
b11010111 *
#463
b11011000 *
#464
b11011001 *
#465
b11011010 *
#466
b11011011 *
#467
b11011100 *
#468
b11011101 *
#469
b11011110 *
#470
b11011111 *
#471
b11100000 *
#472
b11100001 *
#473
b11100010 *
#474
b11100011 *
#475
b11100100 *
#476
b11100101 *
#477
b11100110 *
#478
b11100111 *
#479
b11101000 *
#480
b11101001 *
#481
b11101010 *
#482
b11101011 *
#483
b11101100 *
#484
b11101101 *
#485
b11101110 *
#486
b11101111 *
#487
b11110000 *
#488
b11110001 *
#489
b11110010 *
#490
b11110011 *
#491
b11110100 *
#492
b11110101 *
#493
b11110110 *
#494
b11110111 *
#495
b11111000 *
#496
b11111001 *
#497
b11111010 *
#498
b11111011 *
#499
b11111100 *
#500
b11111101 *
#501
b11111110 *
#502
b0 *
#503
b1000 "
b1 *
#504
b10 *
#505
b11 *
#506
b100 *
#507
b101 *
#508
b110 *
#509
b111 *
#510
b1000 *
#511
b1001 *
#512
b1010 *
12
#513
b1011 *
#514
b1100 *
#515
b1101 *
#516
b1110 *
#517
b1111 *
#518
b10000 *
#519
b10001 *
#520
b10010 *
#521
b10011 *
#522
b10100 *
#523
b10101 *
#524
b10110 *
#525
b10111 *
#526
b11000 *
#527
b11001 *
#528
b11010 *
#529
b11011 *
#530
b11100 *
#531
b11101 *
#532
b11110 *
#533
b11111 *
#534
b100000 *
#535
b100001 *
#536
b100010 *
#537
b100011 *
#538
b100100 *
#539
b100101 *
#540
b100110 *
#541
b100111 *
#542
b101000 *
#543
b101001 *
#544
b101010 *
#545
b101011 *
#546
b101100 *
#547
b101101 *
#548
b101110 *
#549
b101111 *
#550
b110000 *
#551
b110001 *
#552
b110010 *
#553
b110011 *
#554
b110100 *
#555
b110101 *
#556
b110110 *
#557
b110111 *
#558
b111000 *
#559
b111001 *
#560
b111010 *
#561
b111011 *
#562
b111100 *
#563
b111101 *
#564
b111110 *
#565
b111111 *
#566
b1000000 *
#567
b1000001 *
#568
b1000010 *
#569
b1000011 *
#570
b1000100 *
#571
b1000101 *
#572
b1000110 *
#573
b1000111 *
#574
b1001000 *
#575
b1001001 *
#576
b1001010 *
#577
b1001011 *
#578
b1001100 *
#579
b1001101 *
#580
b1001110 *
#581
b1001111 *
#582
b1010000 *
#583
b1010001 *
#584
b1010010 *
#585
b1010011 *
#586
b1010100 *
#587
b1010101 *
#588
b1010110 *
#589
b1010111 *
#590
b1011000 *
#591
b1011001 *
#592
b1011010 *
#593
b1011011 *
#594
b1011100 *
#595
b1011101 *
#596
b1011110 *
#597
b1011111 *
#598
b1100000 *
#599
b1100001 *
#600
b1100010 *
#601
b1100011 *
#602
b1100100 *
#603
b1100101 *
#604
b1100110 *
#605
b1100111 *
#606
b1101000 *
#607
b1101001 *
#608
b1101010 *
#609
b1101011 *
#610
b1101100 *
#611
b1101101 *
#612
b1101110 *
#613
b1101111 *
#614
b1110000 *
#615
b1110001 *
#616
b1110010 *
#617
b1110011 *
#618
b1110100 *
#619
b1110101 *
#620
b1110110 *
#621
b1110111 *
#622
b1111000 *
#623
b1111001 *
#624
b1111010 *
#625
b1111011 *
#626
b1111100 *
#627
b1111101 *
#628
b1111110 *
#629
b1111111 *
#630
b10000000 *
#631
b10000001 *
#632
b10000010 *
#633
b10000011 *
#634
b10000100 *
#635
b10000101 *
#636
b10000110 *
#637
b10000111 *
#638
b10001000 *
#639
b10001001 *
#640
b10001010 *
#641
b10001011 *
#642
b10001100 *
#643
b10001101 *
#644
b10001110 *
#645
b10001111 *
#646
b10010000 *
#647
b10010001 *
#648
b10010010 *
#649
b10010011 *
#650
b10010100 *
#651
b10010101 *
#652
b10010110 *
#653
b10010111 *
#654
b10011000 *
#655
b10011001 *
#656
b0 "
b10011010 *
#657
b10011011 *
#658
b10011100 *
#659
b10011101 *
#660
b10011110 *
#661
b10011111 *
#662
b10100000 *
#663
b10100001 *
#664
b10100010 *
#665
b10100011 *
#666
b10100100 *
#667
b10100101 *
#668
b10100110 *
#669
b10100111 *
#670
b10101000 *
#671
b10101001 *
#672
b10101010 *
#673
b10101011 *
#674
b10101100 *
#675
b10101101 *
#676
b10101110 *
#677
b10101111 *
#678
b10110000 *
#679
b10110001 *
#680
b10110010 *
#681
b10110011 *
#682
b10110100 *
#683
b10110101 *
#684
b10110110 *
#685
b10110111 *
#686
b10111000 *
#687
b10111001 *
#688
b10111010 *
#689
b10111011 *
#690
b10111100 *
#691
b10111101 *
#692
b10111110 *
#693
b10111111 *
#694
b11000000 *
#695
b11000001 *
#696
b11000010 *
#697
b11000011 *
#698
b11000100 *
#699
b11000101 *
#700
b11000110 *
#701
b11000111 *
#702
b11001000 *
#703
b11001001 *
#704
b11001010 *
#705
b11001011 *
#706
b11001100 *
#707
b11001101 *
#708
b11001110 *
#709
b11001111 *
#710
b11010000 *
#711
b11010001 *
#712
b11010010 *
#713
b11010011 *
#714
b11010100 *
#715
b11010101 *
#716
b11010110 *
#717
b11010111 *
#718
b11011000 *
#719
b11011001 *
#720
b11011010 *
#721
b11011011 *
#722
b11011100 *
#723
b11011101 *
#724
b11011110 *
#725
b11011111 *
#726
b11100000 *
#727
b11100001 *
#728
b11100010 *
#729
b11100011 *
#730
b11100100 *
#731
b11100101 *
#732
b11100110 *
#733
b11100111 *
#734
b11101000 *
#735
b11101001 *
#736
b11101010 *
#737
b11101011 *
#738
b11101100 *
#739
b11101101 *
#740
b11101110 *
#741
b11101111 *
#742
b11110000 *
#743
b11110001 *
#744
b11110010 *
#745
b11110011 *
#746
b11110100 *
#747
b11110101 *
#748
b11110110 *
#749
b11110111 *
#750
b11111000 *
#751
b11111001 *
#752
b11111010 *
#753
b11111011 *
#754
b11111100 *
#755
b11111101 *
#756
b11111110 *
#757
b0 *
#758
b1000 "
b1 *
#759
b10 *
#760
b11 *
#761
b100 *
#762
b101 *
#763
b110 *
#764
b111 *
#765
b1000 *
#766
b1001 *
#767
b1010 *
#768
b1011 *
#769
b1100 *
#770
b1101 *
#771
b1110 *
#772
b1111 *
#773
b10000 *
#774
b10001 *
#775
b10010 *
#776
b10011 *
#777
b10100 *
#778
b10101 *
#779
b10110 *
#780
b10111 *
#781
b11000 *
#782
b11001 *
#783
b11010 *
#784
b11011 *
#785
b11100 *
#786
b11101 *
#787
b11110 *
#788
b11111 *
#789
b100000 *
#790
b100001 *
#791
b100010 *
#792
b100011 *
#793
b100100 *
#794
b100101 *
#795
b100110 *
#796
b100111 *
#797
b101000 *
#798
b101001 *
#799
b101010 *
#800
b101011 *
#801
b101100 *
#802
b101101 *
#803
b101110 *
#804
b101111 *
#805
b110000 *
#806
b110001 *
#807
b110010 *
#808
b110011 *
#809
b110100 *
#810
b110101 *
#811
b110110 *
#812
b110111 *
#813
b111000 *
#814
b111001 *
#815
b111010 *
#816
b111011 *
#817
b111100 *
#818
b111101 *
#819
b111110 *
#820
b111111 *
#821
b1000000 *
#822
b1000001 *
#823
b1000010 *
#824
b1000011 *
#825
b1000100 *
#826
b1000101 *
#827
b1000110 *
#828
b1000111 *
#829
b1001000 *
#830
b1001001 *
#831
b1001010 *
#832
b1001011 *
#833
b1001100 *
#834
b1001101 *
#835
b1001110 *
#836
b1001111 *
#837
b1010000 *
#838
b1010001 *
#839
b1010010 *
#840
b1010011 *
#841
b1010100 *
#842
b1010101 *
#843
b1010110 *
#844
b1010111 *
#845
b1011000 *
#846
b1011001 *
#847
b1011010 *
#848
b1011011 *
#849
b1011100 *
#850
b1011101 *
#851
b1011110 *
#852
b1011111 *
#853
b1100000 *
#854
b1100001 *
#855
b1100010 *
#856
b1100011 *
#857
b1100100 *
#858
b1100101 *
#859
b1100110 *
#860
b1100111 *
#861
b1101000 *
#862
b1101001 *
#863
b1101010 *
#864
b1101011 *
#865
b1101100 *
#866
b1101101 *
#867
b1101110 *
#868
b1101111 *
#869
b1110000 *
#870
b1110001 *
#871
b1110010 *
#872
b1110011 *
#873
b1110100 *
#874
b1110101 *
#875
b1110110 *
#876
b1110111 *
#877
b1111000 *
#878
b1111001 *
#879
b1111010 *
#880
b1111011 *
#881
b1111100 *
#882
b1111101 *
#883
b1111110 *
#884
b1111111 *
#885
b10000000 *
#886
b10000001 *
#887
b10000010 *
#888
b10000011 *
#889
b10000100 *
#890
b10000101 *
#891
b10000110 *
#892
b10000111 *
#893
b10001000 *
#894
b10001001 *
#895
b10001010 *
#896
b10001011 *
#897
b10001100 *
#898
b10001101 *
#899
b10001110 *
#900
b10001111 *
#901
b10010000 *
#902
b10010001 *
#903
b10010010 *
#904
b10010011 *
#905
b10010100 *
#906
b10010101 *
#907
b10010110 *
#908
b10010111 *
#909
b10011000 *
#910
b10011001 *
#911
b0 "
b10011010 *
#912
b10011011 *
#913
b10011100 *
#914
b10011101 *
#915
b10011110 *
#916
b10011111 *
#917
b10100000 *
#918
b10100001 *
#919
b10100010 *
#920
b10100011 *
#921
b10100100 *
#922
b10100101 *
#923
b10100110 *
#924
b10100111 *
#925
b10101000 *
#926
b10101001 *
#927
b10101010 *
#928
b10101011 *
#929
b10101100 *
#930
b10101101 *
#931
b10101110 *
#932
b10101111 *
#933
b10110000 *
#934
b10110001 *
#935
b10110010 *
#936
b10110011 *
#937
b10110100 *
#938
b10110101 *
#939
b10110110 *
#940
b10110111 *
#941
b10111000 *
#942
b10111001 *
#943
b10111010 *
#944
b10111011 *
#945
b10111100 *
#946
b10111101 *
#947
b10111110 *
#948
b10111111 *
#949
b11000000 *
#950
b11000001 *
#951
b11000010 *
#952
b11000011 *
#953
b11000100 *
#954
b11000101 *
#955
b11000110 *
#956
b11000111 *
#957
b11001000 *
#958
b11001001 *
#959
b11001010 *
#960
b11001011 *
#961
b11001100 *
#962
b11001101 *
#963
b11001110 *
#964
b11001111 *
#965
b11010000 *
#966
b11010001 *
#967
b11010010 *
#968
b11010011 *
#969
b11010100 *
#970
b11010101 *
#971
b11010110 *
#972
b11010111 *
#973
b11011000 *
#974
b11011001 *
#975
b11011010 *
#976
b11011011 *
#977
b11011100 *
#978
b11011101 *
#979
b11011110 *
#980
b11011111 *
#981
b11100000 *
#982
b11100001 *
#983
b11100010 *
#984
b11100011 *
#985
b11100100 *
#986
b11100101 *
#987
b11100110 *
#988
b11100111 *
#989
b11101000 *
#990
b11101001 *
#991
b11101010 *
#992
b11101011 *
#993
b11101100 *
#994
b11101101 *
#995
b11101110 *
#996
b11101111 *
#997
b11110000 *
#998
b11110001 *
#999
b11110010 *
#1000
b11110011 *
#1001
b11110100 *
#1002
b11110101 *
#1003
b11110110 *
#1004
b11110111 *
#1005
b11111000 *
#1006
b11111001 *
#1007
b11111010 *
#1008
b11111011 *
#1009
b11111100 *
#1010
b11111101 *
#1011
b11111110 *
#1012
b0 *
#1013
b1000 "
b1 *
#1014
b10 *
#1015
b11 *
#1016
b100 *
#1017
b101 *
#1018
b110 *
#1019
b111 *
#1020
b1000 *
#1021
b1001 *
#1022
b1010 *
#1023
b1011 *
